{
  "courses":[
    {
      "name": "Joy of Living 1",
      "description": "Course for Joy of Living 1"
    },
    {
      "name": "Joy of Living 2",
      "description": "Course for Joy of Living 2"
    },{
      "name": "Guru Yoga",
      "description": "Course for Guru Yoga"
    },{
      "name": "Nature of mind",
      "description": "Nature of mind course"
    },{
      "name": "Mandala",
      "description": "MANDALA Course"
    }
  ]
}